quantile,mfmc 5%,mfmc 95%,mc 5%,mc 95%
0.01,2.8178969882461415,2.7548626726110443,2.8816056536307997,2.2419144136273537,3.3711881083662845
0.02,2.8634011804829913,2.8012054671031335,2.927802702768592,2.3341982308487115,3.4490966197280732
0.03,2.8990165491097257,2.840954065588095,2.960136032923813,2.301384384751535,3.4934784736734867
0.04,2.9280560442811097,2.870713392871691,2.9947428577828066,2.327395269749004,3.573948565367063
0.05,2.9535818612108207,2.894806167511113,3.017521165285608,2.360987599273823,3.562786770609722
0.06,2.9766988468926123,2.9171049152364734,3.039867194124176,2.353098802857301,3.5976283663838022
0.07,2.9973023513316743,2.9373746211245995,3.058916270830312,2.388835780069061,3.5953041794490375
0.08,3.0168745995448183,2.9565667796438553,3.0812742316775723,2.423930717124464,3.64838464885787
0.09,3.035223513357796,2.978913672800738,3.0984853533101098,2.4289509262472846,3.665968786327785
0.1,3.052980401269569,2.9976465218571993,3.1157855564059065,2.43647978909609,3.6691135052495527
0.11,3.069945484152544,3.012586818013727,3.1350669018549553,2.4888876018883015,3.6672962989210784
0.12,3.0863699831081957,3.028056816844616,3.152124374254641,2.51055571462181,3.685171434780361
0.13,3.101847010907756,3.0450248848940498,3.168409311491032,2.5462057877196793,3.7098993557773077
0.14,3.116645612149693,3.05639813734782,3.180876545657495,2.5171046875355323,3.7291678003788378
0.15,3.1311878207682415,3.067463456488705,3.1983984491297615,2.5010696706456073,3.6912883898652744
0.16,3.145231275470045,3.0837284856277063,3.2122606814227153,2.5530250737455518,3.7111486183465727
0.17,3.1588349840481773,3.0965888139315716,3.2235065737368847,2.5598690042383896,3.7143450701110226
0.18,3.172344051031864,3.1153793913436916,3.2383622496189512,2.5550710944149975,3.812871253114222
0.19,3.1852899384231415,3.126840322684003,3.249276381101701,2.5988186744637387,3.800575753641773
0.2,3.1979227765046154,3.13283761910462,3.2658547970470737,2.601994839426093,3.829412288742093
0.21,3.210111367701727,3.152037263043134,3.272866596687766,2.587726708281542,3.825565685756899
0.22,3.2219816250568782,3.167477559207726,3.2824265238956425,2.6320489007624284,3.8415289946398397
0.23,3.2335405376956032,3.171194487260463,3.2958128760152294,2.6576304177783605,3.833191162526116
0.24,3.244953676124031,3.1889257133721913,3.3074874619928316,2.6474405950753073,3.8335236142396156
0.25,3.256301414726299,3.1970160432701062,3.3170752474686545,2.6985889422946285,3.8561047659171024
0.26,3.267435299291442,3.205981901923384,3.3262592798542605,2.671439053839362,3.828044285248987
0.27,3.2782984629569167,3.220128446933866,3.342930194973722,2.6552155458249085,3.871552558179785
0.28,3.2890243147938656,3.224956631184156,3.3520398971260312,2.7133199186681076,3.9292441656272596
0.29,3.29973815345366,3.241418668651131,3.3654321735542365,2.6926830234340877,3.8976339956527197
0.3,3.310217033841192,3.2521479203049304,3.377639681302032,2.7070159487993375,3.9114699358138676
0.31,3.320693581170231,3.2571385586964676,3.3845209785928816,2.734122297792953,3.9276922452479357
0.32,3.3310529403023,3.270020637901309,3.3949072532545923,2.744860861871276,3.9458480323480227
0.33,3.341547736646732,3.2797021673603375,3.406828435614577,2.680905051733663,3.964471390237214
0.34,3.352019324873558,3.2911618910255607,3.41815085071155,2.779131953332991,3.9596284415612426
0.35,3.3625909725681558,3.3000532979779567,3.4259752215065475,2.807809866992526,3.9436656485697767
0.36,3.3731639997808363,3.307854116769564,3.4428170128892477,2.8029828111973814,3.9735984424497333
0.37,3.3838543929847322,3.318105053425427,3.4491270664708615,2.815653520943079,3.9675047043395453
0.38,3.3944265297574048,3.332029803948979,3.454956458387979,2.7937403850504983,3.95709862021053
0.39,3.405240319183009,3.3396784781650592,3.4740389959334808,2.7945259951285597,4.062964664978994
0.4,3.415944520969897,3.344206105176636,3.4842347557153954,2.797356941540795,4.006878208574294
0.41,3.4267585630905626,3.360308233873361,3.4944769530645483,2.808486111721174,4.050410940392763
0.42,3.4375732625967705,3.3689486086842675,3.506384088728255,2.831295303581944,4.025135858956618
0.43,3.448447681455339,3.3815882633180747,3.520466188851508,2.855901384002978,4.03263539810945
0.44,3.459441689641046,3.394824625152343,3.528733835058872,2.857379424923143,4.10862077023687
0.45,3.4704296892415085,3.3993578932968807,3.5375625579584,2.897307386699486,4.080288372234412
0.46,3.4815478663759363,3.410549233778955,3.5548390577173863,2.8407686997479344,4.089859039020477
0.47,3.492724747223128,3.424009848915822,3.5569345958523257,2.8882258462259665,4.113128665637029
0.48,3.50392682815539,3.4298950088437765,3.5772868457706206,2.926643245045167,4.096906561740216
0.49,3.5153052553765782,3.441032524592956,3.587743405026239,2.8981694536994893,4.12451320350719
0.5,3.527169861143708,3.453310067834173,3.6020185370280484,2.931479243379901,4.143699096692215
0.51,3.5389885175491624,3.463566150530302,3.611657914754843,2.961924444172209,4.145342128713213
0.52,3.5506425682242915,3.466889492767056,3.625125721081291,3.025722653454232,4.165361801293164
0.53,3.562510870503643,3.4712350644456604,3.638548762176626,2.9716112073696785,4.178241588382558
0.54,3.5744684349301044,3.4867986732280727,3.650144822254205,2.94301821005657,4.233012777013171
0.55,3.5868348822168694,3.5075636091092037,3.663841486673224,2.9553707929286914,4.17507604412952
0.56,3.5993321337373483,3.514311257431513,3.6797522443302633,2.9494874037150534,4.241963591931529
0.57,3.6121378963017285,3.5178444572802494,3.6865417689580586,2.990232151605042,4.217174278583134
0.58,3.625024565863751,3.534481238439032,3.7047524865222488,2.965483091766806,4.205659545184613
0.59,3.6382024527310213,3.5255893212471485,3.7146063332212207,3.040701760615676,4.215651487594758
0.6,3.651579425383039,3.535881056792334,3.7344082323332226,3.0273642643524896,4.222519749587395
0.61,3.665330685196862,3.5304434756151966,3.756892346986723,3.056876608268165,4.297681085023379
0.62,3.6797802723909787,3.5546224085885854,3.771060766973841,3.043088700560486,4.272154952216712
0.63,3.694516617729419,3.564682427997223,3.7895162787287875,3.100052881855695,4.3025445053130795
0.64,3.7095499867077852,3.567882756322406,3.8024451190043758,3.0929110306289176,4.30667196511961
0.65,3.7250243771284235,3.5779706716498194,3.814386329973589,3.127721244325891,4.318091368220781
0.66,3.740941303400266,3.600022586074076,3.8346701859250705,3.127060723088498,4.344463108950532
0.67,3.7569118457406105,3.613321026040218,3.845150294640127,3.1623634494714463,4.418725771330933
0.68,3.7733103710537224,3.6203894794904605,3.8656574852121732,3.1539031621082256,4.396100401336754
0.69,3.790467413745518,3.6488705960273307,3.8924799818394207,3.1410762158884444,4.412283681429614
0.7,3.8077389701723123,3.66144419205013,3.9032554070257652,3.187361930938416,4.40262968298468
0.71,3.8255000948675755,3.6660524748543017,3.925238341811357,3.2066461459077216,4.428784102287042
0.72,3.843856475796427,3.698083007903787,3.939793330998316,3.196539489046172,4.431918993942514
0.73,3.863557347740398,3.7141707304174942,3.959587349088885,3.251764309235276,4.53985805678888
0.74,3.8839054787090803,3.7126841521332885,3.988290778354986,3.2841533554905227,4.4675523199375995
0.75,3.906277321483048,3.7830476212379103,4.012072077570799,3.2735776853602823,4.517192609732775
0.76,3.928942822591684,3.772222846318386,4.02255039905536,3.3136046735548144,4.530248448665966
0.77,3.952327706074423,3.7912011711260876,4.057145187866107,3.3240970101999006,4.5556429369259295
0.78,3.976002147873011,3.8211420405608774,4.081302924182172,3.3445593967503844,4.5826672212236605
0.79,4.001016734033517,3.840046067300885,4.107988460820545,3.3750193675788465,4.636282984859166
0.8,4.0263769054186875,3.8738382891425154,4.137072770089397,3.359099915695183,4.659521560282066
0.81,4.0544488997931465,3.8906464063740867,4.164825493921337,3.465158040740936,4.691142215548312
0.82,4.084237119618341,3.918267827181788,4.1932199535793355,3.444591794502306,4.707984048391053
0.83,4.1153077420869115,3.9649597675712043,4.231894231113019,3.481858579805102,4.747409836264091
0.84,4.147857609680656,3.995407611728277,4.2685578495332495,3.5554347906327877,4.7587340537933525
0.85,4.182637375471749,4.032124371197205,4.310198610852133,3.53352102617068,4.831528336926327
0.86,4.2226371690606666,4.039373163727079,4.367979498509644,3.5909251767259103,4.901798224772515
0.87,4.265237523799068,4.067369018588903,4.41880671737328,3.660650682969251,4.863411231252235
0.88,4.316167189504852,4.113888625508215,4.484168496772768,3.6518162871240616,4.980432557856844
0.89,4.369227348601204,4.192666048766634,4.562001172923328,3.7037557144140396,5.051267913598866
0.9,4.429676000954614,4.250689096230812,4.611677587820398,3.8075343686989074,5.019876984961474
0.91,4.488387949058299,4.2888394999584945,4.69966569085323,3.8185021724021553,5.118605911201422
0.92,4.550151428839323,4.33048278334779,4.776099301043398,3.8944846050303674,5.181269949464518
0.93,4.613832700656758,4.383995226716748,4.85288178499252,3.9146888450000947,5.269704029601303
0.94,4.683420109848154,4.439401459071415,4.913071256588125,4.021698162438172,5.344584659427226
0.95,4.759715444712631,4.518593456136527,4.999148676826175,4.038876325008644,5.420196368707893
0.96,4.859491553712696,4.612166098478094,5.128646047738546,4.1698289194325255,5.546364469365347
0.97,4.979803305735107,4.719709573324794,5.2382161004490095,4.245786340756697,5.680905938751791
0.98,5.139970070176999,4.88500640561595,5.417953691462456,4.428134833768901,5.8745516470438695
0.99,5.38085418045474,5.074248367862815,5.706505354115301,4.668957283750068,6.123132930426543
